{
    "KPlugin": {
        "MimeTypes": [
            "text/plain"
        ],
        "Name": "Bazaar",
        "Name[az]": "Bazaar",
        "Name[bg]": "Bazaar",
        "Name[ca@valencia]": "Bazaar",
        "Name[ca]": "Bazaar",
        "Name[cs]": "Bazaar",
        "Name[de]": "Bazaar",
        "Name[el]": "Bazaar",
        "Name[en_GB]": "Bazaar",
        "Name[eo]": "Bazaar",
        "Name[es]": "Bazaar",
        "Name[eu]": "Bazaar",
        "Name[fi]": "Bazaar",
        "Name[fr]": "Bazaar",
        "Name[gl]": "Bazaar",
        "Name[hu]": "Bazaar",
        "Name[ia]": "Bazaar",
        "Name[id]": "Bazaar",
        "Name[ie]": "Bazaar",
        "Name[is]": "Bazaar",
        "Name[it]": "Bazaar",
        "Name[ka]": "Bazaar",
        "Name[ko]": "Bazaar",
        "Name[nb]": "Bazaar",
        "Name[nl]": "Bazaar",
        "Name[nn]": "Bazaar",
        "Name[pl]": "Bazaar",
        "Name[pt]": "Bazaar",
        "Name[pt_BR]": "Bazaar",
        "Name[ro]": "Bazaar",
        "Name[ru]": "Bazaar",
        "Name[sk]": "Bazaar",
        "Name[sl]": "Bazaar",
        "Name[sv]": "Bazaar",
        "Name[tr]": "Bazaar",
        "Name[uk]": "Bazaar",
        "Name[vi]": "Bazaar",
        "Name[x-test]": "xxBazaarxx",
        "Name[zh_CN]": "Bazaar",
        "Name[zh_TW]": "Bazaar"
    },
    "MimeType": "text/plain;"
}
